…
The table above shows the cumulative confirmed cases of COVID-19
worldwide by date. Just reading numbers in a table makes it hard to get
a sense of the scale and growth of the outbreak. Let’s draw a line plot
to visualize the confirmed cases worldwide.

``` r
# read dataset
file = "Data/confirmed_cases_worldwide.csv"
confirmed_cases_worldwide = read_csv(file)

# see result
tibble(confirmed_cases_worldwide)
```

    ## # A tibble: 56 x 2
    ##    date       cum_cases
    ##    <date>         <dbl>
    ##  1 2020-01-22       555
    ##  2 2020-01-23       653
    ##  3 2020-01-24       941
    ##  4 2020-01-25      1434
    ##  5 2020-01-26      2118
    ##  6 2020-01-27      2927
    ##  7 2020-01-28      5578
    ##  8 2020-01-29      6166
    ##  9 2020-01-30      8234
    ## 10 2020-01-31      9927
    ## # ... with 46 more rows
…
